{
    "louvain_clustering": {
        "modularity": 0.6045695626834571,
        "number_of_clusters": 10,
        "partition": {
            "0": 0,
            "1": 1,
            "10": 5,
            "100": 2,
            "101": 8,
            "102": 5,
            "103": 1,
            "104": 0,
            "105": 1,
            "106": 2,
            "107": 5,
            "108": 9,
            "109": 1,
            "11": 0,
            "110": 4,
            "111": 9,
            "112": 3,
            "113": 6,
            "114": 4,
            "12": 7,
            "13": 2,
            "14": 7,
            "15": 2,
            "16": 0,
            "17": 6,
            "18": 7,
            "19": 8,
            "2": 2,
            "20": 6,
            "21": 9,
            "22": 9,
            "23": 0,
            "24": 0,
            "25": 1,
            "26": 7,
            "27": 6,
            "28": 0,
            "29": 8,
            "3": 5,
            "30": 8,
            "31": 7,
            "32": 2,
            "33": 1,
            "34": 7,
            "35": 8,
            "36": 7,
            "37": 1,
            "38": 7,
            "39": 2,
            "4": 0,
            "40": 5,
            "41": 0,
            "42": 7,
            "43": 7,
            "44": 3,
            "45": 1,
            "46": 4,
            "47": 2,
            "48": 3,
            "49": 4,
            "5": 5,
            "50": 0,
            "51": 9,
            "52": 5,
            "53": 4,
            "54": 7,
            "55": 8,
            "56": 6,
            "57": 3,
            "58": 6,
            "59": 6,
            "6": 2,
            "60": 2,
            "61": 7,
            "62": 6,
            "63": 6,
            "64": 2,
            "65": 6,
            "66": 3,
            "67": 4,
            "68": 9,
            "69": 0,
            "7": 9,
            "70": 6,
            "71": 7,
            "72": 5,
            "73": 4,
            "74": 5,
            "75": 3,
            "76": 6,
            "77": 9,
            "78": 9,
            "79": 8,
            "8": 9,
            "80": 8,
            "81": 5,
            "82": 8,
            "83": 4,
            "84": 5,
            "85": 7,
            "86": 3,
            "87": 6,
            "88": 4,
            "89": 1,
            "9": 0,
            "90": 0,
            "91": 3,
            "92": 3,
            "93": 0,
            "94": 8,
            "95": 6,
            "96": 6,
            "97": 6,
            "98": 5,
            "99": 7
        }
    },
    "number_of_edges": 613,
    "number_of_nodes": 115,
    "pos_spectral": {
        "0": [
            0.32224167531193804,
            0.616271083520049
        ],
        "1": [
            0.6927962254097777,
            0.7218804718603445
        ],
        "10": [
            0.19232573037287715,
            0.4828138752915426
        ],
        "100": [
            0.4410772906239379,
            0.17894284282957032
        ],
        "101": [
            0.643063894826055,
            0.390154786902288
        ],
        "102": [
            0.24830637960944757,
            0.47554391401312623
        ],
        "103": [
            0.6922286945224339,
            0.7396189873822765
        ],
        "104": [
            0.19397273368034498,
            0.5864052013874514
        ],
        "105": [
            0.7317551517068693,
            0.7393188287397835
        ],
        "106": [
            0.5039045651667737,
            0.33690577986475
        ],
        "107": [
            0.2011764448650885,
            0.5452991084324128
        ],
        "108": [
            0.0,
            0.42285910178079017
        ],
        "109": [
            0.7289454687003935,
            0.6701418358723958
        ],
        "11": [
            0.21583375660394477,
            0.6215914100934756
        ],
        "110": [
            0.23830024167121774,
            0.5231652784880326
        ],
        "111": [
            0.033961529137530554,
            0.4063364930877254
        ],
        "112": [
            0.5689975261426842,
            0.7927314976223013
        ],
        "113": [
            0.628759329467385,
            0.9817617994196978
        ],
        "114": [
            0.21214491851738207,
            0.5185855539585407
        ],
        "12": [
            0.7456026403024972,
            0.16564065966519112
        ],
        "13": [
            0.4807983354797695,
            0.24881694584872857
        ],
        "14": [
            0.7065501076372843,
            0.033019351262464344
        ],
        "15": [
            0.42812473932384193,
            0.235231274820586
        ],
        "16": [
            0.23220460502338688,
            0.5428380140335272
        ],
        "17": [
            0.6316779550479942,
            0.8665962067958441
        ],
        "18": [
            0.7879258578756639,
            0.08100631880490278
        ],
        "19": [
            0.7367829391159219,
            0.3730113018404339
        ],
        "2": [
            0.4094315429722666,
            0.225915335883484
        ],
        "20": [
            0.6241413936295822,
            0.9118247582727274
        ],
        "21": [
            0.0875453858404643,
            0.4333097301748906
        ],
        "22": [
            0.031161093883162846,
            0.3993314561860332
        ],
        "23": [
            0.10269453132898744,
            0.5286488291726138
        ],
        "24": [
            0.3180950870451945,
            0.7040760015133453
        ],
        "25": [
            0.6419384160743535,
            0.6915449672030066
        ],
        "26": [
            0.730909925614337,
            0.17788171287120685
        ],
        "27": [
            0.7040670808096503,
            0.897200693316737
        ],
        "28": [
            0.2644914345274903,
            0.6155529284185502
        ],
        "29": [
            0.683349285031469,
            0.36066923258956257
        ],
        "3": [
            0.2627679423241223,
            0.4515242812347403
        ],
        "30": [
            0.6476654774554536,
            0.40778826133418256
        ],
        "31": [
            0.7602271631398284,
            0.048253697703368764
        ],
        "32": [
            0.41898202424582837,
            0.20441487161224484
        ],
        "33": [
            0.7064386667906631,
            0.6965385679872123
        ],
        "34": [
            0.78613087511416,
            0.07210904654385449
        ],
        "35": [
            0.6867259149272151,
            0.37967528038328535
        ],
        "36": [
            0.739350564109075,
            0.4576744898420238
        ],
        "37": [
            0.7281404169381415,
            0.7199584840842628
        ],
        "38": [
            0.6571859974175099,
            0.11805902707134505
        ],
        "39": [
            0.4959130624737718,
            0.14743040587401793
        ],
        "4": [
            0.15055411891387818,
            0.5714620902126838
        ],
        "40": [
            0.13964720050345245,
            0.47255364611779144
        ],
        "41": [
            0.11875979962380977,
            0.5403808936334066
        ],
        "42": [
            0.7885153781666169,
            0.2674318880878538
        ],
        "43": [
            0.7712503161770454,
            0.19092570404717935
        ],
        "44": [
            0.6418251433774759,
            0.6989832112595876
        ],
        "45": [
            0.7128789241740754,
            0.7115309843204863
        ],
        "46": [
            0.15566268640845315,
            0.4827025727411515
        ],
        "47": [
            0.396146765514311,
            0.19411349275713233
        ],
        "48": [
            0.5058848373735693,
            0.7610729938796447
        ],
        "49": [
            0.2108814489912455,
            0.5292147477931404
        ],
        "5": [
            0.18220995585340774,
            0.5546774940234082
        ],
        "50": [
            0.1844313528835569,
            0.5619139653676397
        ],
        "51": [
            0.06085245348376045,
            0.4213688455210448
        ],
        "52": [
            0.21296559434128562,
            0.534195074537019
        ],
        "53": [
            0.26356657362601665,
            0.5945620013577717
        ],
        "54": [
            0.7563182740589998,
            0.0
        ],
        "55": [
            0.7182945793517751,
            0.26771104313007305
        ],
        "56": [
            0.6798089658619983,
            0.9505096819134605
        ],
        "57": [
            0.6450818995749509,
            0.7592252588911854
        ],
        "58": [
            0.4909353395954276,
            0.5734045770050887
        ],
        "59": [
            0.6074544338008345,
            0.7404791644278804
        ],
        "6": [
            0.46198293642850596,
            0.21019736989035778
        ],
        "60": [
            0.462176003728846,
            0.23589107171999021
        ],
        "61": [
            0.7442191402860732,
            0.14894288617357354
        ],
        "62": [
            0.7107265467110564,
            0.8889692413485042
        ],
        "63": [
            0.6206567819959692,
            0.6925488225991642
        ],
        "64": [
            0.3870475321545193,
            0.2702188907476902
        ],
        "65": [
            0.635364725761203,
            0.9511817917407218
        ],
        "66": [
            0.5855112648978039,
            0.8344395752612572
        ],
        "67": [
            0.14836775768368057,
            0.5335243155646395
        ],
        "68": [
            0.044188466047753526,
            0.40934949187017966
        ],
        "69": [
            0.30936064357087956,
            0.7073162626388424
        ],
        "7": [
            0.06944159511713954,
            0.391033027368658
        ],
        "70": [
            0.6751409086666453,
            0.904405499847104
        ],
        "71": [
            0.7026332811542295,
            0.02594889763343729
        ],
        "72": [
            0.23982319355397194,
            0.4145632844852909
        ],
        "73": [
            0.13595167046772216,
            0.5045003715432644
        ],
        "74": [
            0.20156022728650308,
            0.4440990187324048
        ],
        "75": [
            0.5794332657386427,
            0.8293793563643441
        ],
        "76": [
            0.6769248776902045,
            0.9853778319566371
        ],
        "77": [
            0.03887806577263419,
            0.4180948833976826
        ],
        "78": [
            0.019715087394045937,
            0.4451281839146596
        ],
        "79": [
            0.7343851901930832,
            0.3197131237173745
        ],
        "8": [
            0.014143399596486226,
            0.44101149862555217
        ],
        "80": [
            0.5898426159897537,
            0.48825823789298717
        ],
        "81": [
            0.17950798721835085,
            0.49402987895889044
        ],
        "82": [
            0.3809512246133614,
            0.35330913195484076
        ],
        "83": [
            0.1695193119179012,
            0.5526405304732509
        ],
        "84": [
            0.1748477204176483,
            0.5365713125137932
        ],
        "85": [
            0.7325535054747292,
            0.06928875414580757
        ],
        "86": [
            0.5578461352424586,
            0.7677452032850773
        ],
        "87": [
            0.5915407006792639,
            0.9489984491430915
        ],
        "88": [
            0.24493417635161974,
            0.5662845870117077
        ],
        "89": [
            0.7021260833097812,
            0.6155548202763304
        ],
        "9": [
            0.11984450408229416,
            0.4952840545455862
        ],
        "90": [
            0.1667364756709535,
            0.6185520415852
        ],
        "91": [
            0.552986938099964,
            0.7009394273666028
        ],
        "92": [
            0.5976915142206743,
            0.6139343149650122
        ],
        "93": [
            0.2467990611746759,
            0.5509029458968795
        ],
        "94": [
            0.6967627492447499,
            0.30160724131173583
        ],
        "95": [
            0.6650282200109069,
            0.9756874350830129
        ],
        "96": [
            0.6546102306537291,
            1.0
        ],
        "97": [
            0.4251867663689454,
            0.7113020611988493
        ],
        "98": [
            0.19335443298249544,
            0.552166061088732
        ],
        "99": [
            0.7567755888881802,
            0.03645503703416664
        ]
    },
    "pos_spring": {
        "0": [
            0.6218597889265091,
            0.46574315063943583
        ],
        "1": [
            0.47726301759010936,
            0.143371536461556
        ],
        "10": [
            0.796083821591859,
            0.5498467298700418
        ],
        "100": [
            0.29803773116229276,
            0.5016249311145271
        ],
        "101": [
            0.356128580812903,
            0.4024656097879461
        ],
        "102": [
            0.6799297808408972,
            0.44050798800522784
        ],
        "103": [
            0.5071264767145326,
            0.08503590373496353
        ],
        "104": [
            0.7404900346684394,
            0.5985292155011669
        ],
        "105": [
            0.41323772909841733,
            0.004209333228993012
        ],
        "106": [
            0.4145281666372366,
            0.39260579192023426
        ],
        "107": [
            0.8393268395717366,
            0.4953606299578913
        ],
        "108": [
            0.6298062994537028,
            1.0
        ],
        "109": [
            0.3687564996337333,
            0.07551886766016698
        ],
        "11": [
            0.8757884470608841,
            0.5347676494376823
        ],
        "110": [
            0.5319948748605571,
            0.5719156323233598
        ],
        "111": [
            0.5543384017764159,
            0.937714306134561
        ],
        "112": [
            0.76643684253087,
            0.23342727812412517
        ],
        "113": [
            0.7944686951340032,
            0.13742773168256575
        ],
        "114": [
            0.5375631405033995,
            0.6384500123591805
        ],
        "12": [
            0.22947061815824468,
            0.18972819869963892
        ],
        "13": [
            0.31420371768083233,
            0.4284092840677725
        ],
        "14": [
            0.14261269543559255,
            0.3609286354166402
        ],
        "15": [
            0.35052772819575784,
            0.5677796476518804
        ],
        "16": [
            0.6016162483212104,
            0.5721255005271577
        ],
        "17": [
            0.6145252339121731,
            0.16937466785676975
        ],
        "18": [
            0.05958896453003115,
            0.13502524182646866
        ],
        "19": [
            0.2785535779182447,
            0.19002632901390357
        ],
        "2": [
            0.413721387684517,
            0.5308233306109276
        ],
        "20": [
            0.6666311678431501,
            0.2291804505879314
        ],
        "21": [
            0.5415273885323877,
            0.7690323964726982
        ],
        "22": [
            0.5354620903383842,
            0.9739778867286186
        ],
        "23": [
            0.685062904081128,
            0.783889663537868
        ],
        "24": [
            0.7684814420841531,
            0.4289630978138885
        ],
        "25": [
            0.5014600718644593,
            0.20017175866013323
        ],
        "26": [
            0.33114613364077355,
            0.22196846966034295
        ],
        "27": [
            0.6083568597426289,
            0.008058200336779842
        ],
        "28": [
            0.6944025239074962,
            0.5253535721267789
        ],
        "29": [
            0.329075404831774,
            0.30163235293642
        ],
        "3": [
            0.6978902374258299,
            0.48201798783333005
        ],
        "30": [
            0.38581562783304746,
            0.3375059244147607
        ],
        "31": [
            0.04351073426285546,
            0.2938357316229
        ],
        "32": [
            0.2835050911526581,
            0.5834353708946867
        ],
        "33": [
            0.4360367703995281,
            0.12063672441348453
        ],
        "34": [
            0.1109750185426843,
            0.1933756282329457
        ],
        "35": [
            0.35160301689369006,
            0.26626971504718555
        ],
        "36": [
            0.3715288889968387,
            0.12962436637351837
        ],
        "37": [
            0.4642010861322545,
            0.016619753458977843
        ],
        "38": [
            0.27371908828945507,
            0.36544467899786304
        ],
        "39": [
            0.21705552739798498,
            0.5116263528850964
        ],
        "4": [
            0.746182460245291,
            0.7070197385477113
        ],
        "40": [
            0.7678755422859304,
            0.6755194318510411
        ],
        "41": [
            0.7352281793661211,
            0.7649216251491144
        ],
        "42": [
            0.2875462267545478,
            0.08023598584157432
        ],
        "43": [
            0.2208870260102196,
            0.14597442263490176
        ],
        "44": [
            0.5683785775160739,
            0.18031929070047803
        ],
        "45": [
            0.4076162693699561,
            0.06630088287021241
        ],
        "46": [
            0.5141861036505857,
            0.7269621055476051
        ],
        "47": [
            0.3147524380428412,
            0.6503812362584511
        ],
        "48": [
            0.7408175770854478,
            0.3155417458014165
        ],
        "49": [
            0.5950154729791192,
            0.6194303917784049
        ],
        "5": [
            0.9306810302567399,
            0.5869938876517418
        ],
        "50": [
            0.6552052547493749,
            0.6459783739391839
        ],
        "51": [
            0.5680423494883661,
            0.8317385792509191
        ],
        "52": [
            0.8681964043068273,
            0.48883269150233793
        ],
        "53": [
            0.6423914572275572,
            0.5050687707100815
        ],
        "54": [
            0.0,
            0.30934622024085506
        ],
        "55": [
            0.18947741841064888,
            0.3117004168546634
        ],
        "56": [
            0.6672613686376719,
            0.032660742542456586
        ],
        "57": [
            0.6298046495812875,
            0.12276385925064831
        ],
        "58": [
            0.5385090958892366,
            0.3681981465679607
        ],
        "59": [
            0.6324282822508367,
            0.20562390505511008
        ],
        "6": [
            0.3068243200668214,
            0.5420329982840489
        ],
        "60": [
            0.42180298313083264,
            0.478869936260684
        ],
        "61": [
            0.22087304157278487,
            0.2613351949806041
        ],
        "62": [
            0.5594023623852732,
            0.03301290618546402
        ],
        "63": [
            0.5543361714197188,
            0.22958241142096955
        ],
        "64": [
            0.4139148300753247,
            0.6090589637401228
        ],
        "65": [
            0.7193662757009881,
            0.12276227375536408
        ],
        "66": [
            0.7456366299618202,
            0.17853145321491518
        ],
        "67": [
            0.6213615009502966,
            0.7115631403102681
        ],
        "68": [
            0.5229639923220823,
            0.8845040169052927
        ],
        "69": [
            0.7422507213465126,
            0.41536032945080953
        ],
        "7": [
            0.5271790579452639,
            0.8410616832388749
        ],
        "70": [
            0.616535706767326,
            0.07762509771194408
        ],
        "71": [
            0.18542787163537167,
            0.3697790871014614
        ],
        "72": [
            0.6268238218746622,
            0.5313354184351273
        ],
        "73": [
            0.5909311307211548,
            0.7273882871708857
        ],
        "74": [
            0.714665681706998,
            0.5923277266253353
        ],
        "75": [
            0.8058402238055157,
            0.20227653472184762
        ],
        "76": [
            0.7594745634632833,
            0.0
        ],
        "77": [
            0.6577532378711994,
            0.8655100270771107
        ],
        "78": [
            0.6519622104081404,
            0.8981444643298225
        ],
        "79": [
            0.22181046531047074,
            0.22849921432272352
        ],
        "8": [
            0.6853249993574536,
            0.9843902616133188
        ],
        "80": [
            0.43824068612459377,
            0.30563122466354803
        ],
        "81": [
            0.7857752939686156,
            0.6147171434210346
        ],
        "82": [
            0.4650588482482596,
            0.5634330553519793
        ],
        "83": [
            0.685691941962717,
            0.6616077442851047
        ],
        "84": [
            0.8597000859889903,
            0.6159604786705489
        ],
        "85": [
            0.14967477277524746,
            0.2936481207912214
        ],
        "86": [
            0.6983080027520491,
            0.26260962264805493
        ],
        "87": [
            0.7769846707326523,
            0.19537814367740183
        ],
        "88": [
            0.5727204319550749,
            0.5175376442853296
        ],
        "89": [
            0.35612229553499336,
            0.17182206026793825
        ],
        "9": [
            0.6325425239209461,
            0.7842268509910221
        ],
        "90": [
            0.814275876198743,
            0.6725212180296002
        ],
        "91": [
            0.6238285797110557,
            0.30189787894061093
        ],
        "92": [
            0.5507293260486834,
            0.28111492330361654
        ],
        "93": [
            0.6306414451961265,
            0.5943284318806286
        ],
        "94": [
            0.24920434423968457,
            0.3316988470297855
        ],
        "95": [
            0.719398706948287,
            0.04729138114787168
        ],
        "96": [
            0.8049618702632323,
            0.05526266280887991
        ],
        "97": [
            0.8172678546138541,
            0.35667328616184757
        ],
        "98": [
            0.8754114738859053,
            0.5802960084603261
        ],
        "99": [
            0.05447626231291884,
            0.25285448075814343
        ]
    }
}